{
  "project_info": {
    "project_number": "944617784538",
    "firebase_url": "https://projectwebtasks-default-rtdb.firebaseio.com",
    "project_id": "projectwebtasks",
    "storage_bucket": "projectwebtasks.appspot.com"
  },
  "client": [
    {
      "client_info": {
        "mobilesdk_app_id": "1:944617784538:android:228e83b465cfe37c8c91e3",
        "android_client_info": {
          "package_name": "com.example.flutter_web_project"
        }
      },
      "oauth_client": [],
      "api_key": [
        {
          "current_key": "AIzaSyD7MW7aqiwRaU6AArFTKe5wa6mFtdley7M"
        }
      ],
      "services": {
        "appinvite_service": {
          "other_platform_oauth_client": []
        }
      }
    }
  ],
  "configuration_version": "1"
}